
{

"pathway":{
	"name":"path:hsa00010",
	"image":"http://www.kegg.jp/kegg/pathway/hsa/hsa00010.png",
	"link":"http://www.kegg.jp/kegg-bin/show_pathway?hsa00010",
	"entries":[
		
{
"id":"13",
"name":"hsa:226 hsa:229 hsa:230",
"type":"gene",
"reaction":"rn:R01070",
"link":"http://www.kegg.jp/dbget-bin/www_bget?hsa:226+hsa:229+hsa:230"
}
,
{
"id":"37",
"name":"hsa:217 hsa:219 hsa:223 hsa:224 hsa:501",
"type":"gene",
"reaction":"rn:R00710",
"link":"http://www.kegg.jp/dbget-bin/www_bget?hsa:217+hsa:219+hsa:223+hsa:224+hsa:501"
}
,
{
"id":"38",
"name":"ko:K01905",
"type":"ortholog",
"reaction":"rn:R00229",
"link":"http://www.kegg.jp/dbget-bin/www_bget?K01905"
}
,
{
"id":"39",
"name":"hsa:218 hsa:220 hsa:221 hsa:222",
"type":"gene",
"reaction":"rn:R00711",
"link":"http://www.kegg.jp/dbget-bin/www_bget?hsa:218+hsa:220+hsa:221+hsa:222"
}
,
{
"id":"40",
"name":"cpd:C00033",
"type":"compound",
"reaction":"",
"link":"http://www.kegg.jp/dbget-bin/www_bget?C00033"
}
,
{
"id":"41",
"name":"path:hsa00030",
"type":"map",
"reaction":"",
"link":"http://www.kegg.jp/dbget-bin/www_bget?hsa00030"
}
,
{
"id":"42",
"name":"path:hsa00500",
"type":"map",
"reaction":"",
"link":"http://www.kegg.jp/dbget-bin/www_bget?hsa00500"
}
,
{
"id":"43",
"name":"ko:K01568",
"type":"ortholog",
"reaction":"rn:R00755",
"link":"http://www.kegg.jp/dbget-bin/www_bget?K01568"
}
,
{
"id":"44",
"name":"hsa:10327",
"type":"gene",
"reaction":"rn:R00746",
"link":"http://www.kegg.jp/dbget-bin/www_bget?hsa:10327"
}
,
{
"id":"45",
"name":"hsa:124 hsa:125 hsa:126 hsa:127 hsa:128 hsa:130 hsa:131",
"type":"gene",
"reaction":"rn:R00754",
"link":"http://www.kegg.jp/dbget-bin/www_bget?hsa:124+hsa:125+hsa:126+hsa:127+hsa:128+hsa:130+hsa:131"
}
,
{
"id":"46",
"name":"ko:K01568",
"type":"ortholog",
"reaction":"rn:R00014",
"link":"http://www.kegg.jp/dbget-bin/www_bget?K01568"
}
,
{
"id":"47",
"name":"hsa:5160 hsa:5161 hsa:5162",
"type":"gene",
"reaction":"rn:R00014",
"link":"http://www.kegg.jp/dbget-bin/www_bget?hsa:5160+hsa:5161+hsa:5162"
}
,
{
"id":"48",
"name":"hsa:5160 hsa:5161 hsa:5162",
"type":"gene",
"reaction":"rn:R03270",
"link":"http://www.kegg.jp/dbget-bin/www_bget?hsa:5160+hsa:5161+hsa:5162"
}
,
{
"id":"49",
"name":"hsa:1737",
"type":"gene",
"reaction":"rn:R02569",
"link":"http://www.kegg.jp/dbget-bin/www_bget?hsa:1737"
}
,
{
"id":"50",
"name":"hsa:160287 hsa:3939 hsa:3945 hsa:3948 hsa:92483",
"type":"gene",
"reaction":"rn:R00703",
"link":"http://www.kegg.jp/dbget-bin/www_bget?hsa:160287+hsa:3939+hsa:3945+hsa:3948+hsa:92483"
}
,
{
"id":"51",
"name":"path:hsa00620",
"type":"map",
"reaction":"",
"link":"http://www.kegg.jp/dbget-bin/www_bget?hsa00620"
}
,
{
"id":"52",
"name":"hsa:5313 hsa:5315",
"type":"gene",
"reaction":"rn:R00200",
"link":"http://www.kegg.jp/dbget-bin/www_bget?hsa:5313+hsa:5315"
}
,
{
"id":"53",
"name":"path:hsa00020",
"type":"map",
"reaction":"",
"link":"http://www.kegg.jp/dbget-bin/www_bget?hsa00020"
}
,
{
"id":"54",
"name":"hsa:2023 hsa:2026 hsa:2027",
"type":"gene",
"reaction":"rn:R00658",
"link":"http://www.kegg.jp/dbget-bin/www_bget?hsa:2023+hsa:2026+hsa:2027"
}
,
{
"id":"55",
"name":"hsa:441531 hsa:5223 hsa:5224 hsa:669",
"type":"gene",
"reaction":"rn:R01518",
"link":"http://www.kegg.jp/dbget-bin/www_bget?hsa:441531+hsa:5223+hsa:5224+hsa:669"
}
,
{
"id":"56",
"name":"hsa:2597 hsa:26330",
"type":"gene",
"reaction":"rn:R01061",
"link":"http://www.kegg.jp/dbget-bin/www_bget?hsa:2597+hsa:26330"
}
,
{
"id":"57",
"name":"hsa:7167",
"type":"gene",
"reaction":"rn:R01015",
"link":"http://www.kegg.jp/dbget-bin/www_bget?hsa:7167"
}
,
{
"id":"58",
"name":"hsa:5211 hsa:5213 hsa:5214",
"type":"gene",
"reaction":"rn:R04779",
"link":"http://www.kegg.jp/dbget-bin/www_bget?hsa:5211+hsa:5213+hsa:5214"
}
,
{
"id":"59",
"name":"hsa:2203 hsa:8789",
"type":"gene",
"reaction":"rn:R04780",
"link":"http://www.kegg.jp/dbget-bin/www_bget?hsa:2203+hsa:8789"
}
,
{
"id":"60",
"name":"ko:K02777 ko:K02778 ko:K02779 ko:K02790 ko:K02791",
"type":"ortholog",
"reaction":"rn:R02738",
"link":"http://www.kegg.jp/dbget-bin/www_bget?K02777+K02778+K02779+K02790+K02791"
}
,
{
"id":"61",
"name":"hsa:2821",
"type":"gene",
"reaction":"rn:R02740",
"link":"http://www.kegg.jp/dbget-bin/www_bget?hsa:2821"
}
,
{
"id":"62",
"name":"hsa:5236 hsa:55276",
"type":"gene",
"reaction":"rn:R00959",
"link":"http://www.kegg.jp/dbget-bin/www_bget?hsa:5236+hsa:55276"
}
,
{
"id":"63",
"name":"hsa:2821",
"type":"gene",
"reaction":"rn:R03321",
"link":"http://www.kegg.jp/dbget-bin/www_bget?hsa:2821"
}
,
{
"id":"64",
"name":"hsa:3098 hsa:3099 hsa:3101 hsa:80201",
"type":"gene",
"reaction":"rn:R01600",
"link":"http://www.kegg.jp/dbget-bin/www_bget?hsa:3098+hsa:3099+hsa:3101+hsa:80201"
}
,
{
"id":"65",
"name":"hsa:2645",
"type":"gene",
"reaction":"rn:R01600",
"link":"http://www.kegg.jp/dbget-bin/www_bget?hsa:2645"
}
,
{
"id":"66",
"name":"hsa:2821",
"type":"gene",
"reaction":"rn:R02739",
"link":"http://www.kegg.jp/dbget-bin/www_bget?hsa:2821"
}
,
{
"id":"67",
"name":"ko:K01792",
"type":"ortholog",
"reaction":"rn:R02739",
"link":"http://www.kegg.jp/dbget-bin/www_bget?K01792"
}
,
{
"id":"68",
"name":"hsa:130589",
"type":"gene",
"reaction":"rn:R01602",
"link":"http://www.kegg.jp/dbget-bin/www_bget?hsa:130589"
}
,
{
"id":"69",
"name":"hsa:2645",
"type":"gene",
"reaction":"rn:R01786",
"link":"http://www.kegg.jp/dbget-bin/www_bget?hsa:2645"
}
,
{
"id":"70",
"name":"hsa:3098 hsa:3099 hsa:3101 hsa:80201",
"type":"gene",
"reaction":"rn:R01786",
"link":"http://www.kegg.jp/dbget-bin/www_bget?hsa:3098+hsa:3099+hsa:3101+hsa:80201"
}
,
{
"id":"71",
"name":"hsa:2538 hsa:57818 hsa:92579",
"type":"gene",
"reaction":"rn:R01788",
"link":"http://www.kegg.jp/dbget-bin/www_bget?hsa:2538+hsa:57818+hsa:92579"
}
,
{
"id":"72",
"name":"ko:K01085",
"type":"ortholog",
"reaction":"rn:R00947",
"link":"http://www.kegg.jp/dbget-bin/www_bget?K01085"
}
,
{
"id":"73",
"name":"ko:K05344",
"type":"ortholog",
"reaction":"rn:R00960",
"link":"http://www.kegg.jp/dbget-bin/www_bget?K05344"
}
,
{
"id":"74",
"name":"path:hsa00010",
"type":"map",
"reaction":"",
"link":"http://www.kegg.jp/dbget-bin/www_bget?hsa00010"
}
,
{
"id":"75",
"name":"hsa:1738",
"type":"gene",
"reaction":"rn:R07618",
"link":"http://www.kegg.jp/dbget-bin/www_bget?hsa:1738"
}
,
{
"id":"76",
"name":"hsa:5230 hsa:5232",
"type":"gene",
"reaction":"rn:R01512",
"link":"http://www.kegg.jp/dbget-bin/www_bget?hsa:5230+hsa:5232"
}
,
{
"id":"77",
"name":"ko:K00886",
"type":"ortholog",
"reaction":"rn:R02189",
"link":"http://www.kegg.jp/dbget-bin/www_bget?K00886"
}
,
{
"id":"78",
"name":"ko:K00886",
"type":"ortholog",
"reaction":"rn:R02187",
"link":"http://www.kegg.jp/dbget-bin/www_bget?K00886"
}
,
{
"id":"79",
"name":"ko:K02777 ko:K02749 ko:K02750 ko:K02752 ko:K02753",
"type":"ortholog",
"reaction":"rn:R05132",
"link":"http://www.kegg.jp/dbget-bin/www_bget?K02777+K02749+K02750+K02752+K02753"
}
,
{
"id":"80",
"name":"ko:K02777 ko:K02752 ko:K02753",
"type":"ortholog",
"reaction":"rn:R04394",
"link":"http://www.kegg.jp/dbget-bin/www_bget?K02777+K02752+K02753"
}
,
{
"id":"81",
"name":"ko:K01222 ko:K01223",
"type":"ortholog",
"reaction":"rn:R05133",
"link":"http://www.kegg.jp/dbget-bin/www_bget?K01222+K01223"
}
,
{
"id":"82",
"name":"ko:K01222 ko:K01223",
"type":"ortholog",
"reaction":"rn:R05134",
"link":"http://www.kegg.jp/dbget-bin/www_bget?K01222+K01223"
}
,
{
"id":"83",
"name":"cpd:C00031",
"type":"compound",
"reaction":"",
"link":"http://www.kegg.jp/dbget-bin/www_bget?C00031"
}
,
{
"id":"84",
"name":"cpd:C00103",
"type":"compound",
"reaction":"",
"link":"http://www.kegg.jp/dbget-bin/www_bget?C00103"
}
,
{
"id":"85",
"name":"cpd:C00631",
"type":"compound",
"reaction":"",
"link":"http://www.kegg.jp/dbget-bin/www_bget?C00631"
}
,
{
"id":"86",
"name":"cpd:C00267",
"type":"compound",
"reaction":"",
"link":"http://www.kegg.jp/dbget-bin/www_bget?C00267"
}
,
{
"id":"87",
"name":"cpd:C00221",
"type":"compound",
"reaction":"",
"link":"http://www.kegg.jp/dbget-bin/www_bget?C00221"
}
,
{
"id":"88",
"name":"cpd:C00111",
"type":"compound",
"reaction":"",
"link":"http://www.kegg.jp/dbget-bin/www_bget?C00111"
}
,
{
"id":"89",
"name":"cpd:C01172",
"type":"compound",
"reaction":"",
"link":"http://www.kegg.jp/dbget-bin/www_bget?C01172"
}
,
{
"id":"90",
"name":"cpd:C00668",
"type":"compound",
"reaction":"",
"link":"http://www.kegg.jp/dbget-bin/www_bget?C00668"
}
,
{
"id":"91",
"name":"cpd:C05345",
"type":"compound",
"reaction":"",
"link":"http://www.kegg.jp/dbget-bin/www_bget?C05345"
}
,
{
"id":"92",
"name":"cpd:C00074",
"type":"compound",
"reaction":"",
"link":"http://www.kegg.jp/dbget-bin/www_bget?C00074"
}
,
{
"id":"93",
"name":"cpd:C00197",
"type":"compound",
"reaction":"",
"link":"http://www.kegg.jp/dbget-bin/www_bget?C00197"
}
,
{
"id":"94",
"name":"cpd:C00236",
"type":"compound",
"reaction":"",
"link":"http://www.kegg.jp/dbget-bin/www_bget?C00236"
}
,
{
"id":"95",
"name":"cpd:C00186",
"type":"compound",
"reaction":"",
"link":"http://www.kegg.jp/dbget-bin/www_bget?C00186"
}
,
{
"id":"96",
"name":"cpd:C15972",
"type":"compound",
"reaction":"",
"link":"http://www.kegg.jp/dbget-bin/www_bget?C15972"
}
,
{
"id":"97",
"name":"cpd:C00469",
"type":"compound",
"reaction":"",
"link":"http://www.kegg.jp/dbget-bin/www_bget?C00469"
}
,
{
"id":"98",
"name":"cpd:C00022",
"type":"compound",
"reaction":"",
"link":"http://www.kegg.jp/dbget-bin/www_bget?C00022"
}
,
{
"id":"99",
"name":"cpd:C05125",
"type":"compound",
"reaction":"",
"link":"http://www.kegg.jp/dbget-bin/www_bget?C05125"
}
,
{
"id":"100",
"name":"cpd:C00024",
"type":"compound",
"reaction":"",
"link":"http://www.kegg.jp/dbget-bin/www_bget?C00024"
}
,
{
"id":"101",
"name":"cpd:C00084",
"type":"compound",
"reaction":"",
"link":"http://www.kegg.jp/dbget-bin/www_bget?C00084"
}
,
{
"id":"102",
"name":"cpd:C16255",
"type":"compound",
"reaction":"",
"link":"http://www.kegg.jp/dbget-bin/www_bget?C16255"
}
,
{
"id":"103",
"name":"cpd:C15973",
"type":"compound",
"reaction":"",
"link":"http://www.kegg.jp/dbget-bin/www_bget?C15973"
}
,
{
"id":"104",
"name":"cpd:C05378",
"type":"compound",
"reaction":"",
"link":"http://www.kegg.jp/dbget-bin/www_bget?C05378"
}
,
{
"id":"105",
"name":"cpd:C06186",
"type":"compound",
"reaction":"",
"link":"http://www.kegg.jp/dbget-bin/www_bget?C06186"
}
,
{
"id":"106",
"name":"cpd:C06187",
"type":"compound",
"reaction":"",
"link":"http://www.kegg.jp/dbget-bin/www_bget?C06187"
}
,
{
"id":"107",
"name":"cpd:C06188",
"type":"compound",
"reaction":"",
"link":"http://www.kegg.jp/dbget-bin/www_bget?C06188"
}
,
{
"id":"108",
"name":"cpd:C01451",
"type":"compound",
"reaction":"",
"link":"http://www.kegg.jp/dbget-bin/www_bget?C01451"
}
,
{
"id":"112",
"name":"hsa:5105 hsa:5106",
"type":"gene",
"reaction":"rn:R00431 rn:R00726",
"link":"http://www.kegg.jp/dbget-bin/www_bget?hsa:5105+hsa:5106"
}
,
{
"id":"113",
"name":"cpd:C00036",
"type":"compound",
"reaction":"",
"link":"http://www.kegg.jp/dbget-bin/www_bget?C00036"
}
,
{
"id":"115",
"name":"ko:K14028 ko:K14029",
"type":"ortholog",
"reaction":"rn:R09127",
"link":"http://www.kegg.jp/dbget-bin/www_bget?K14028+K14029"
}
,
{
"id":"116",
"name":"ko:K01610",
"type":"ortholog",
"reaction":"rn:R00341",
"link":"http://www.kegg.jp/dbget-bin/www_bget?K01610"
}
,
{
"id":"117",
"name":"ko:K04022",
"type":"ortholog",
"reaction":"rn:R00754",
"link":"http://www.kegg.jp/dbget-bin/www_bget?K04022"
}
,
{
"id":"118",
"name":"path:hsa00640",
"type":"map",
"reaction":"",
"link":"http://www.kegg.jp/dbget-bin/www_bget?hsa00640"
}
,
{
"id":"119",
"name":"ko:K00150",
"type":"ortholog",
"reaction":"rn:R01061 rn:R01063",
"link":"http://www.kegg.jp/dbget-bin/www_bget?K00150"
}
,
{
"id":"121",
"name":"ko:K11389",
"type":"ortholog",
"reaction":"rn:R07159",
"link":"http://www.kegg.jp/dbget-bin/www_bget?K11389"
}
,
{
"id":"122",
"name":"ko:K00131",
"type":"ortholog",
"reaction":"rn:R01058",
"link":"http://www.kegg.jp/dbget-bin/www_bget?K00131"
}
,
{
"id":"124",
"name":"ko:K00169 ko:K00170 ko:K00172 ko:K00171",
"type":"ortholog",
"reaction":"rn:R01196",
"link":"http://www.kegg.jp/dbget-bin/www_bget?K00169+K00170+K00172+K00171"
}
,
{
"id":"125",
"name":"cpd:C01159",
"type":"compound",
"reaction":"",
"link":"http://www.kegg.jp/dbget-bin/www_bget?C01159"
}
,
{
"id":"128",
"name":"hsa:669",
"type":"gene",
"reaction":"rn:R01516",
"link":"http://www.kegg.jp/dbget-bin/www_bget?hsa:669"
}
,
{
"id":"129",
"name":"hsa:669",
"type":"gene",
"reaction":"rn:R01662",
"link":"http://www.kegg.jp/dbget-bin/www_bget?hsa:669"
}
,
{
"id":"130",
"name":"cpd:C00118",
"type":"compound",
"reaction":"",
"link":"http://www.kegg.jp/dbget-bin/www_bget?C00118"
}
,
{
"id":"131",
"name":"hsa:55902 hsa:84532",
"type":"gene",
"reaction":"rn:R00235",
"link":"http://www.kegg.jp/dbget-bin/www_bget?hsa:55902+hsa:84532"
}
,
{
"id":"132",
"name":"ko:K00918",
"type":"ortholog",
"reaction":"rn:R09084",
"link":"http://www.kegg.jp/dbget-bin/www_bget?K00918"
}
,
{
"id":"133",
"name":"hsa:83440",
"type":"gene",
"reaction":"rn:R09085",
"link":"http://www.kegg.jp/dbget-bin/www_bget?hsa:83440"
}
,
{
"id":"134",
"name":"hsa:83440",
"type":"gene",
"reaction":"rn:R09086",
"link":"http://www.kegg.jp/dbget-bin/www_bget?hsa:83440"
}
,
{
"id":"135",
"name":"ko:K00114",
"type":"ortholog",
"reaction":"rn:R05198",
"link":"http://www.kegg.jp/dbget-bin/www_bget?K00114"
}
,
{
"id":"136",
"name":"cpd:C00068",
"type":"compound",
"reaction":"",
"link":"http://www.kegg.jp/dbget-bin/www_bget?C00068"
}
,
{
"id":"137",
"name":"ko:K15633 ko:K15634 ko:K15635",
"type":"ortholog",
"reaction":"rn:R01518",
"link":"http://www.kegg.jp/dbget-bin/www_bget?K15633+K15634+K15635"
}
,
{
"id":"138",
"name":"ko:K00138",
"type":"ortholog",
"reaction":"rn:R00711",
"link":"http://www.kegg.jp/dbget-bin/www_bget?K00138"
}
,
{
"id":"140",
"name":"hsa:9562",
"type":"gene",
"reaction":"rn:R09532",
"link":"http://www.kegg.jp/dbget-bin/www_bget?hsa:9562"
}
,
{
"id":"141",
"name":"path:map00710",
"type":"map",
"reaction":"",
"link":"http://www.kegg.jp/dbget-bin/www_bget?map00710"
}

		],
	"relations":[
		
{
"entry1":"68",
"entry2":"70",
"type":"ECrel"
}
,
{
"entry1":"68",
"entry2":"69",
"type":"ECrel"
}
,
{
"entry1":"68",
"entry2":"71",
"type":"ECrel"
}
,
{
"entry1":"65",
"entry2":"68",
"type":"ECrel"
}
,
{
"entry1":"64",
"entry2":"68",
"type":"ECrel"
}
,
{
"entry1":"63",
"entry2":"65",
"type":"ECrel"
}
,
{
"entry1":"63",
"entry2":"64",
"type":"ECrel"
}
,
{
"entry1":"61",
"entry2":"71",
"type":"ECrel"
}
,
{
"entry1":"66",
"entry2":"71",
"type":"ECrel"
}
,
{
"entry1":"62",
"entry2":"71",
"type":"ECrel"
}
,
{
"entry1":"61",
"entry2":"70",
"type":"ECrel"
}
,
{
"entry1":"61",
"entry2":"69",
"type":"ECrel"
}
,
{
"entry1":"61",
"entry2":"62",
"type":"ECrel"
}
,
{
"entry1":"66",
"entry2":"70",
"type":"ECrel"
}
,
{
"entry1":"62",
"entry2":"70",
"type":"ECrel"
}
,
{
"entry1":"66",
"entry2":"69",
"type":"ECrel"
}
,
{
"entry1":"62",
"entry2":"69",
"type":"ECrel"
}
,
{
"entry1":"62",
"entry2":"66",
"type":"ECrel"
}
,
{
"entry1":"59",
"entry2":"61",
"type":"ECrel"
}
,
{
"entry1":"58",
"entry2":"61",
"type":"ECrel"
}
,
{
"entry1":"13",
"entry2":"59",
"type":"ECrel"
}
,
{
"entry1":"13",
"entry2":"58",
"type":"ECrel"
}
,
{
"entry1":"57",
"entry2":"13",
"type":"ECrel"
}
,
{
"entry1":"56",
"entry2":"76",
"type":"ECrel"
}
,
{
"entry1":"55",
"entry2":"76",
"type":"ECrel"
}
,
{
"entry1":"54",
"entry2":"55",
"type":"ECrel"
}
,
{
"entry1":"48",
"entry2":"49",
"type":"ECrel"
}
,
{
"entry1":"48",
"entry2":"75",
"type":"ECrel"
}
,
{
"entry1":"49",
"entry2":"75",
"type":"ECrel"
}
,
{
"entry1":"37",
"entry2":"45",
"type":"ECrel"
}
,
{
"entry1":"39",
"entry2":"45",
"type":"ECrel"
}
,
{
"entry1":"37",
"entry2":"44",
"type":"ECrel"
}
,
{
"entry1":"39",
"entry2":"44",
"type":"ECrel"
}
,
{
"entry1":"52",
"entry2":"54",
"type":"ECrel"
}
,
{
"entry1":"59",
"entry2":"63",
"type":"ECrel"
}
,
{
"entry1":"58",
"entry2":"63",
"type":"ECrel"
}
,
{
"entry1":"50",
"entry2":"52",
"type":"ECrel"
}
,
{
"entry1":"47",
"entry2":"52",
"type":"ECrel"
}
,
{
"entry1":"47",
"entry2":"50",
"type":"ECrel"
}
,
{
"entry1":"65",
"entry2":"66",
"type":"ECrel"
}
,
{
"entry1":"64",
"entry2":"66",
"type":"ECrel"
}
,
{
"entry1":"62",
"entry2":"42",
"type":"maplink"
}
,
{
"entry1":"62",
"entry2":"41",
"type":"maplink"
}
,
{
"entry1":"61",
"entry2":"41",
"type":"maplink"
}
,
{
"entry1":"71",
"entry2":"41",
"type":"maplink"
}
,
{
"entry1":"70",
"entry2":"41",
"type":"maplink"
}
,
{
"entry1":"69",
"entry2":"41",
"type":"maplink"
}
,
{
"entry1":"66",
"entry2":"41",
"type":"maplink"
}
,
{
"entry1":"49",
"entry2":"53",
"type":"maplink"
}
,
{
"entry1":"76",
"entry2":"129",
"type":"ECrel"
}
,
{
"entry1":"56",
"entry2":"129",
"type":"ECrel"
}
,
{
"entry1":"128",
"entry2":"76",
"type":"ECrel"
}
,
{
"entry1":"128",
"entry2":"55",
"type":"ECrel"
}
,
{
"entry1":"112",
"entry2":"54",
"type":"ECrel"
}
,
{
"entry1":"112",
"entry2":"52",
"type":"ECrel"
}
,
{
"entry1":"50",
"entry2":"118",
"type":"maplink"
}
,
{
"entry1":"53",
"entry2":"112",
"type":"maplink"
}
,
{
"entry1":"55",
"entry2":"41",
"type":"maplink"
}
,
{
"entry1":"54",
"entry2":"41",
"type":"maplink"
}
,
{
"entry1":"47",
"entry2":"41",
"type":"maplink"
}
,
{
"entry1":"50",
"entry2":"41",
"type":"maplink"
}
,
{
"entry1":"52",
"entry2":"41",
"type":"maplink"
}
,
{
"entry1":"57",
"entry2":"56",
"type":"ECrel"
}
,
{
"entry1":"13",
"entry2":"57",
"type":"ECrel"
}
,
{
"entry1":"13",
"entry2":"56",
"type":"ECrel"
}
,
{
"entry1":"13",
"entry2":"41",
"type":"maplink"
}
,
{
"entry1":"41",
"entry2":"56",
"type":"maplink"
}
,
{
"entry1":"41",
"entry2":"57",
"type":"maplink"
}
,
{
"entry1":"129",
"entry2":"128",
"type":"ECrel"
}
,
{
"entry1":"131",
"entry2":"37",
"type":"ECrel"
}
,
{
"entry1":"131",
"entry2":"39",
"type":"ECrel"
}
,
{
"entry1":"131",
"entry2":"49",
"type":"ECrel"
}
,
{
"entry1":"131",
"entry2":"53",
"type":"maplink"
}
,
{
"entry1":"134",
"entry2":"63",
"type":"ECrel"
}
,
{
"entry1":"134",
"entry2":"66",
"type":"ECrel"
}
,
{
"entry1":"68",
"entry2":"133",
"type":"ECrel"
}
,
{
"entry1":"68",
"entry2":"134",
"type":"ECrel"
}
,
{
"entry1":"133",
"entry2":"66",
"type":"ECrel"
}
,
{
"entry1":"133",
"entry2":"61",
"type":"ECrel"
}
,
{
"entry1":"133",
"entry2":"41",
"type":"maplink"
}
,
{
"entry1":"133",
"entry2":"62",
"type":"ECrel"
}
,
{
"entry1":"129",
"entry2":"140",
"type":"ECrel"
}
,
{
"entry1":"128",
"entry2":"140",
"type":"ECrel"
}
,
{
"entry1":"55",
"entry2":"140",
"type":"ECrel"
}
,
{
"entry1":"140",
"entry2":"54",
"type":"ECrel"
}
,
{
"entry1":"140",
"entry2":"41",
"type":"maplink"
}
,
{
"entry1":"76",
"entry2":"141",
"type":"maplink"
}
,
{
"entry1":"128",
"entry2":"141",
"type":"maplink"
}
,
{
"entry1":"55",
"entry2":"141",
"type":"maplink"
}

		]
	}

}
